[
 {
  "allow_on_submit": 0, 
  "bold": 0, 
  "collapsible": 0, 
  "collapsible_depends_on": null, 
  "columns": 0, 
  "default": null, 
  "depends_on": null, 
  "description": null, 
  "docstatus": 0, 
  "doctype": "Custom Field", 
  "dt": "Stock Entry", 
  "fieldname": "metal_process_order", 
  "fieldtype": "Link", 
  "hidden": 0, 
  "ignore_user_permissions": 0, 
  "ignore_xss_filter": 0, 
  "in_global_search": 0, 
  "in_list_view": 0, 
  "in_standard_filter": 0, 
  "insert_after": "purpose", 
  "label": "Process Order", 
  "modified": "2017-09-28 13:24:15.182875", 
  "name": "Stock Entry-metal_process_order", 
  "no_copy": 0, 
  "options": "Metal Process Order", 
  "permlevel": 0, 
  "precision": "", 
  "print_hide": 0, 
  "print_hide_if_no_value": 0, 
  "print_width": null, 
  "read_only": 1, 
  "report_hide": 0, 
  "reqd": 0, 
  "search_index": 0, 
  "unique": 0, 
  "width": null
 }, 
 {
  "allow_on_submit": 0, 
  "bold": 1, 
  "collapsible": 0, 
  "collapsible_depends_on": null, 
  "columns": 0, 
  "default": null, 
  "depends_on": null, 
  "description": null, 
  "docstatus": 0, 
  "doctype": "Custom Field", 
  "dt": "Workstation", 
  "fieldname": "metal_department", 
  "fieldtype": "Link", 
  "hidden": 0, 
  "ignore_user_permissions": 0, 
  "ignore_xss_filter": 0, 
  "in_global_search": 0, 
  "in_list_view": 1, 
  "in_standard_filter": 1, 
  "insert_after": "workstation_name", 
  "label": "Department", 
  "modified": "2017-10-05 14:26:56.363975", 
  "name": "Workstation-metal_department", 
  "no_copy": 0, 
  "options": "Metal Manufacturing Department", 
  "permlevel": 0, 
  "precision": "", 
  "print_hide": 0, 
  "print_hide_if_no_value": 0, 
  "print_width": null, 
  "read_only": 0, 
  "report_hide": 0, 
  "reqd": 0, 
  "search_index": 0, 
  "unique": 0, 
  "width": null
 }
]